<?xml version="1.0" encoding="utf-8"?>
<!-- Generator: Adobe Illustrator 25.0.1, SVG Export Plug-In . SVG Version: 6.00 Build 0)  -->
<svg version="1.1" id="Capa_1" xmlns="http://www.w3.org/2000/svg" xmlns:xlink="http://www.w3.org/1999/xlink" x="0px" y="0px"
	 viewBox="0 0 31.4 31.4" style="enable-background:new 0 0 31.4 31.4;" xml:space="preserve">
<style type="text/css">
	.st0{opacity:0.5;fill:#FFFFFF;}
	.st1{fill:#FFFFFF;}
</style>
<g>
	<g>
		<path class="st0" d="M7.6,16.9c-1.8,0-3.2,1.4-3.2,3.2s1.4,3.2,3.2,3.2c1.8,0,3.2-1.4,3.2-3.2S9.4,16.9,7.6,16.9z M7.6,21
			c-0.5,0-1-0.4-1-1s0.4-1,1-1c0.5,0,1,0.4,1,1S8.1,21,7.6,21z"/>
		<path class="st1" d="M30.9,17.4l-0.5-4.3c-0.1-0.8-0.8-1.4-1.6-1.4l-1.1,0.1L24,8.7c-0.3-0.3-0.8-0.5-1.2-0.5l-7.2,0
			c-1.6,0-3.2,0.6-4.5,1.6L7,13l-5.4,1.4c-0.7,0.2-1.2,0.8-1.2,1.5v1.6c-0.2,0-0.4,0.2-0.4,0.4v2.1c0,0.3,0.2,0.5,0.5,0.5h3.1
			c0-0.1,0-0.3,0-0.4c0-2.2,1.8-4,4-4s4,1.8,4,4c0,0.1,0,0.3,0,0.4h8.5c0-0.1,0-0.3,0-0.4c0-2.2,1.8-4,4-4c2.2,0,4,1.8,4,4
			c0,0.1,0,0.3,0,0.4h2.9c0.3,0,0.5-0.2,0.5-0.5v-2C31.4,17.7,31.2,17.4,30.9,17.4z M20.2,12.2l-10.1,0.5l1.9-1.6
			c1.1-0.8,2.4-1.3,3.7-1.3h4.5V12.2z M21.8,12.1V9.9h0.7c0.2,0,0.4,0.1,0.6,0.2l2.1,1.9L21.8,12.1z"/>
		<path class="st0" d="M24.1,16.9c-1.8,0-3.2,1.4-3.2,3.2s1.4,3.2,3.2,3.2c1.8,0,3.2-1.4,3.2-3.2S25.8,16.9,24.1,16.9z M24.1,21
			c-0.5,0-1-0.4-1-1s0.4-1,1-1c0.5,0,1,0.4,1,1S24.6,21,24.1,21z"/>
	</g>
</g>
</svg>
