<?xml version="1.0" encoding="utf-8"?>
<!-- Generator: Adobe Illustrator 25.1.0, SVG Export Plug-In . SVG Version: 6.00 Build 0)  -->
<svg version="1.1" id="Capa_1" xmlns="http://www.w3.org/2000/svg" xmlns:xlink="http://www.w3.org/1999/xlink" x="0px" y="0px"
	 viewBox="0 0 512 512" style="enable-background:new 0 0 512 512;" xml:space="preserve">
<style type="text/css">
	.st0{fill:#FFFFFF;}
</style>
<g>
	<path class="st0" d="M0,456.7C0,487.2,24.8,512,55.3,512h401.3c30.5,0,55.3-24.8,55.3-55.3V271H0V456.7z M341.6,400h47.6
		c6.5,0,11.8-5.3,11.8-11.8v-47.6c0-19.8,30-19.9,30,0v47.6c0,23-18.7,41.8-41.8,41.8h-47.6C321.8,430,321.8,400,341.6,400
		L341.6,400z M81,340.6c0-19.8,30-19.9,30,0v47.6c0,6.5,5.3,11.8,11.8,11.8h47.6c19.8,0,19.9,30,0,30h-47.6
		c-23,0-41.8-18.7-41.8-41.8V340.6z"/>
	<path class="st0" d="M456.7,0C351.2,0,692.7,0,55.3,0C24.8,0,0,24.8,0,55.3V241h512V55.3C512,24.8,487.2,0,456.7,0z M170.4,110
		h-47.6c-6.5,0-11.8,5.3-11.8,11.8v47.6c0,19.8-30,19.9-30,0v-47.6c0-23,18.7-41.8,41.8-41.8h47.6C190.2,80,190.2,110,170.4,110z
		 M431,169.4c0,19.8-30,19.9-30,0v-47.6c0-6.5-5.3-11.8-11.8-11.8h-47.6c-19.8,0-19.9-30,0-30h47.6c23,0,41.8,18.7,41.8,41.8V169.4z
		"/>
</g>
</svg>
