<?xml version="1.0" encoding="utf-8"?>
<!-- Generator: Adobe Illustrator 25.0.1, SVG Export Plug-In . SVG Version: 6.00 Build 0)  -->
<svg version="1.1" id="Ebene_1" xmlns="http://www.w3.org/2000/svg" xmlns:xlink="http://www.w3.org/1999/xlink" x="0px" y="0px"
	 viewBox="0 0 512 512" style="enable-background:new 0 0 512 512;" xml:space="preserve">
<style type="text/css">
	.st0{opacity:0.5;fill:#FFFFFF;}
	.st1{fill:#FFFFFF;}
</style>
<path class="st0" d="M510.6,89.2c-1.1-7.6-6.3-13.9-13.7-16.3c-7.4-2.5-15.3-0.6-20.8,4.9l-27,27c-3.4,3.4-7.9,5.2-12.7,5.2
	c-4.7,0-9.2-1.9-12.5-5.2l-16.6-16.6c-3.4-3.4-5.2-7.9-5.2-12.7c0-4.7,1.9-9.2,5.3-12.6l27-27.1c5.4-5.4,7.3-13.3,5-20.6
	C437,8,430.8,2.7,423.2,1.5l-0.2,0c-32.5-4.8-65.9,6.1-89.1,29.4c-23.1,23.2-33.8,55-29.6,87.4c0.9,7-1.5,14.1-6.5,19.1L16,419.1
	c-21.2,21.2-21.2,55.6-0.1,76.8c10.3,10.3,23.9,16,38.5,16h0.1c14.5,0,28.2-5.7,38.5-15.9l281.8-281.7c5-5,12.2-7.4,19.2-6.5
	c32.4,4.3,64.2-6.5,87.4-29.6C504.5,155,515.5,121.7,510.6,89.2z"/>
<path class="st1" d="M34.8,125.6c2,3.9,5.2,7,9.1,9l63.7,32.9l60.1,59.7l60.4-60.4l-60-59.7L135,43.7c-2-3.9-5.2-7-9.1-9.1L63.3,2.4
	c-8.2-4.2-18.1-2.7-24.7,3.8L6.2,38.5C-0.3,45.1-1.9,55,2.4,63.2L34.8,125.6z"/>
<path class="st1" d="M365.3,263.4L262.8,365.9l125.3,124.8c14.1,14.1,32.7,21.1,51.3,21.1c18.6,0,37.2-7.1,51.3-21.2
	c13.7-13.7,21.3-31.9,21.3-51.2s-7.6-37.5-21.3-51.2L365.3,263.4z"/>
</svg>
