<?xml version="1.0" encoding="utf-8"?>
<!-- Generator: Adobe Illustrator 25.1.0, SVG Export Plug-In . SVG Version: 6.00 Build 0)  -->
<svg version="1.1" id="Capa_1" xmlns="http://www.w3.org/2000/svg" xmlns:xlink="http://www.w3.org/1999/xlink" x="0px" y="0px"
	 viewBox="0 0 436.4 436.4" style="enable-background:new 0 0 436.4 436.4;" xml:space="preserve">
<style type="text/css">
	.st0{fill:#FFFFFF;}
	.st1{opacity:0.5;fill:#FFFFFF;}
</style>
<g>
	<g>
		<path class="st0" d="M340.4,23.2h-134c-8.5,0-16.6,3.4-22.6,9.4L9.4,207c-12.5,12.5-12.5,32.8,0,45.3l134,134
			c12.5,12.5,32.8,12.5,45.2,0L363,211.8c6-6,9.4-14.2,9.4-22.7v-134C372.4,37.5,358.1,23.2,340.4,23.2z M284.4,135.2
			c-13.2,0-24-10.8-24-24s10.8-24,24-24s24,10.8,24,24S297.6,135.2,284.4,135.2z"/>
	</g>
</g>
<g>
	<g>
		<path class="st1" d="M404.4,55.2l0,148.9c0,7.4-2.9,14.5-8.2,19.7L219,401.1l2.7,2.7c12.5,12.5,32.8,12.5,45.2,0l160-160
			c6-6,9.4-14.1,9.4-22.6V87.2C436.4,69.5,422.1,55.2,404.4,55.2z"/>
	</g>
</g>
</svg>
